# 2014-12-03
# Delay Scan
# DL-Pro = +4 GHz | DL-100 = +32 GHz
# MW f = 14008.0 MHz | Attn = 29.0 dB | Field = 6.95 V/cm
# i, d, n, nb, s, sb
0	99900	0.694322	0.0435496	0.0380741	-0.00117585	
1	99800	0.754504	0.0435496	0.0390606	-0.00117585	
2	99700	0.81666	0.0435496	0.0426782	-0.00117585	
3	99600	0.77177	0.0435496	0.0471178	-0.00117585	
4	99500	0.679194	0.0435496	0.0370875	-0.00117585	
5	99400	0.704188	0.0435496	0.0395539	-0.00117585	
6	99300	0.777031	0.0435496	0.0267283	-0.00117585	
7	99200	0.663244	0.0435496	0.0411983	-0.00117585	
8	99100	0.709614	0.0435496	0.0459668	-0.00117585	
9	99000	0.719809	0.0435496	0.0283726	-0.00117585	
10	98900	0.647623	0.0435496	0.0481044	-0.00117585	
11	98800	0.727373	0.0435496	0.0255772	-0.00117585	
12	98700	0.688074	0.0435496	0.0587925	-0.00117585	
13	98600	0.80926	0.0435496	0.0520508	-0.00117585	
14	98500	0.753518	0.0435496	0.0382385	-0.00117585	
15	98400	0.799723	0.0435496	0.0263994	-0.00117585	
16	98300	0.738719	0.0435496	0.0347854	-0.00117585	
17	98200	0.771276	0.0435496	0.0186711	-0.00117585	
18	98100	0.717178	0.0435496	0.0589569	-0.00117585	
19	98000	0.662258	0.0435496	0.0400472	-0.00117585	
20	97900	0.750558	0.0435496	0.0411983	-0.00117585	
21	97800	0.683141	0.0435496	0.0446513	-0.00117585	
22	97700	0.694322	0.0435496	0.0610945	-0.00117585	
23	97600	0.732964	0.0435496	0.0387318	-0.00117585	
24	97500	0.656667	0.0435496	0.0510642	-0.00117585	
25	97400	0.788377	0.0435496	0.0408694	-0.00117585	
26	97300	0.737897	0.0435496	0.0410338	-0.00117585	
27	97200	0.64269	0.0435496	0.0293592	-0.00117585	
28	97100	0.712903	0.0435496	0.0388962	-0.00117585	
29	97000	0.695144	0.0435496	0.0392251	-0.00117585	
30	96900	0.727702	0.0435496	0.0523796	-0.00117585	
31	96800	0.594512	0.0435496	0.049091	-0.00117585	
32	96700	0.688074	0.0435496	0.0643832	-0.00117585	
33	96600	0.64713	0.0435496	0.028537	-0.00117585	
34	96500	0.700571	0.0435496	0.0448158	-0.00117585	
35	96400	0.671302	0.0435496	0.0517219	-0.00117585	
36	96300	0.701722	0.0435496	0.0435003	-0.00117585	
37	96200	0.755655	0.0435496	0.0393895	-0.00117585	
38	96100	0.671137	0.0435496	0.0504065	-0.00117585	
39	96000	0.634798	0.0435496	0.0507353	-0.00117585	
40	95900	0.716685	0.0435496	0.0497487	-0.00117585	
41	95800	0.735101	0.0435496	0.0698094	-0.00117585	
42	95700	0.722111	0.0435496	0.0566549	-0.00117585	
43	95600	0.718329	0.0435496	0.0499132	-0.00117585	
44	95500	0.64713	0.0435496	0.0489266	-0.00117585	
45	95400	0.641868	0.0435496	0.0601079	-0.00117585	
46	95300	0.646308	0.0435496	0.0561616	-0.00117585	
47	95200	0.690211	0.0435496	0.0426782	-0.00117585	
48	95100	0.596156	0.0435496	0.050242	-0.00117585	
49	95000	0.632331	0.0435496	0.0629033	-0.00117585	
50	94900	0.726715	0.0435496	0.0354431	-0.00117585	
51	94800	0.67755	0.0435496	0.0671785	-0.00117585	
52	94700	0.766343	0.0435496	0.0489266	-0.00117585	
53	94600	0.761082	0.0435496	0.0423493	-0.00117585	
54	94500	0.742007	0.0435496	0.043007	-0.00117585	
55	94400	0.715369	0.0435496	0.0573126	-0.00117585	
56	94300	0.680017	0.0435496	0.057477	-0.00117585	
57	94200	0.726386	0.0435496	0.0665208	-0.00117585	
58	94100	0.694322	0.0435496	0.0448158	-0.00117585	
59	94000	0.783773	0.0435496	0.0449802	-0.00117585	
60	93900	0.766837	0.0435496	0.0615878	-0.00117585	
61	93800	0.70945	0.0435496	0.0693161	-0.00117585	
62	93700	0.757464	0.0435496	0.0398828	-0.00117585	
63	93600	0.763384	0.0435496	0.0625744	-0.00117585	
64	93500	0.776703	0.0435496	0.0344566	-0.00117585	
65	93400	0.793475	0.0435496	0.0403761	-0.00117585	
66	93300	0.646144	0.0435496	0.061259	-0.00117585	
67	93200	0.724578	0.0435496	0.0857593	-0.00117585	
68	93100	0.708628	0.0435496	0.0559971	-0.00117585	
69	93000	0.781636	0.0435496	0.0749068	-0.00117585	
70	92900	0.693664	0.0435496	0.0643832	-0.00117585	
71	92800	0.648446	0.0435496	0.0637254	-0.00117585	
72	92700	0.667849	0.0435496	0.0497487	-0.00117585	
73	92600	0.778018	0.0435496	0.057477	-0.00117585	
74	92500	0.73543	0.0435496	0.0546817	-0.00117585	
75	92400	0.667355	0.0435496	0.0617523	-0.00117585	
76	92300	0.68199	0.0435496	0.0781955	-0.00117585	
77	92200	0.683141	0.0435496	0.0671785	-0.00117585	
78	92100	0.725235	0.0435496	0.0721115	-0.00117585	
79	92000	0.698269	0.0435496	0.0582992	-0.00117585	
80	91900	0.779662	0.0435496	0.0630677	-0.00117585	
81	91800	0.704681	0.0435496	0.0737558	-0.00117585	
82	91700	0.753353	0.0435496	0.0642187	-0.00117585	
83	91600	0.699255	0.0435496	0.0428426	-0.00117585	
84	91500	0.692349	0.0435496	0.0688228	-0.00117585	
85	91400	0.69942	0.0435496	0.0878969	-0.00117585	
86	91300	0.693171	0.0435496	0.0615878	-0.00117585	
87	91200	0.743981	0.0435496	0.0793465	-0.00117585	
88	91100	0.743487	0.0435496	0.0926655	-0.00117585	
89	91000	0.63562	0.0435496	0.0785243	-0.00117585	
90	90900	0.715534	0.0435496	0.0704671	-0.00117585	
91	90800	0.709285	0.0435496	0.0694806	-0.00117585	
92	90700	0.70945	0.0435496	0.0905278	-0.00117585	
93	90600	0.751216	0.0435496	0.0576415	-0.00117585	
94	90500	0.789035	0.0435496	0.0714537	-0.00117585	
95	90400	0.785746	0.0435496	0.0507353	-0.00117585	
96	90300	0.727373	0.0435496	0.0693161	-0.00117585	
97	90200	0.687909	0.0435496	0.084115	-0.00117585	
98	90100	0.665711	0.0435496	0.0979273	-0.00117585	
99	90000	0.694322	0.0435496	0.0485977	-0.00117585	
100	89900	0.740363	0.0500611	0.0781955	0.000731565	
101	89800	0.715863	0.0500611	0.0933232	0.000731565	
102	89700	0.776867	0.0500611	0.070796	0.000731565	
103	89600	0.770619	0.0500611	0.0847727	0.000731565	
104	89500	0.78328	0.0500611	0.0726048	0.000731565	
105	89400	0.719974	0.0500611	0.0803331	0.000731565	
106	89300	0.714054	0.0500611	0.0711249	0.000731565	
107	89200	0.651405	0.0500611	0.0980917	0.000731565	
108	89100	0.765028	0.0500611	0.0663564	0.000731565	
109	89000	0.832938	0.0500611	0.0842794	0.000731565	
110	88900	0.789199	0.0500611	0.0957897	0.000731565	
111	88800	0.872402	0.0500611	0.097434	0.000731565	
112	88700	0.802518	0.0500611	0.0716182	0.000731565	
113	88600	0.777031	0.0500611	0.0880614	0.000731565	
114	88500	0.69646	0.0500611	0.086417	0.000731565	
115	88400	0.76881	0.0500611	0.0929943	0.000731565	
116	88300	0.832445	0.0500611	0.0806619	0.000731565	
117	88200	0.685278	0.0500611	0.0948031	0.000731565	
118	88100	0.741514	0.0500611	0.0943098	0.000731565	
119	88000	0.762726	0.0500611	0.104833	0.000731565	
120	87900	0.762561	0.0500611	0.09135	0.000731565	
121	87800	0.729182	0.0500611	0.0704671	0.000731565	
122	87700	0.814522	0.0500611	0.101874	0.000731565	
123	87600	0.755162	0.0500611	0.0735914	0.000731565	
124	87500	0.780649	0.0500611	0.0847727	0.000731565	
125	87400	0.758286	0.0500611	0.0964474	0.000731565	
126	87300	0.726222	0.0500611	0.0994072	0.000731565	
127	87200	0.76585	0.0500611	0.0645476	0.000731565	
128	87100	0.727373	0.0500611	0.079182	0.000731565	
129	87000	0.764041	0.0500611	0.103354	0.000731565	
130	86900	0.784267	0.0500611	0.070796	0.000731565	
131	86800	0.696131	0.0500611	0.0956252	0.000731565	
132	86700	0.766179	0.0500611	0.0773733	0.000731565	
133	86600	0.784924	0.0500611	0.0724403	0.000731565	
134	86500	0.77884	0.0500611	0.0906923	0.000731565	
135	86400	0.775058	0.0500611	0.0571482	0.000731565	
136	86300	0.721947	0.0500611	0.0875681	0.000731565	
137	86200	0.778347	0.0500611	0.0908567	0.000731565	
138	86100	0.737568	0.0500611	0.064712	0.000731565	
139	86000	0.681168	0.0500611	0.0826351	0.000731565	
140	85900	0.682647	0.0500611	0.0819774	0.000731565	
141	85800	0.709121	0.0500611	0.0773733	0.000731565	
142	85700	0.71389	0.0500611	0.0698094	0.000731565	
143	85600	0.720631	0.0500611	0.0827995	0.000731565	
144	85500	0.69794	0.0500611	0.0961185	0.000731565	
145	85400	0.79627	0.0500611	0.0906923	0.000731565	
146	85300	0.644828	0.0500611	0.078031	0.000731565	
147	85200	0.67607	0.0500611	0.0934876	0.000731565	
148	85100	0.763712	0.0500611	0.0906923	0.000731565	
149	85000	0.788706	0.0500611	0.0663564	0.000731565	
150	84900	0.737403	0.0500611	0.0775377	0.000731565	
151	84800	0.714218	0.0500611	0.0938165	0.000731565	
152	84700	0.756477	0.0500611	0.0724403	0.000731565	
153	84600	0.718494	0.0500611	0.0627388	0.000731565	
154	84500	0.695638	0.0500611	0.0982561	0.000731565	
155	84400	0.701064	0.0500611	0.0722759	0.000731565	
156	84300	0.687416	0.0500611	0.117659	0.000731565	
157	84200	0.678866	0.0500611	0.0683295	0.000731565	
158	84100	0.72244	0.0500611	0.0734269	0.000731565	
159	84000	0.731813	0.0500611	0.0680007	0.000731565	
160	83900	0.818468	0.0500611	0.101709	0.000731565	
161	83800	0.783773	0.0500611	0.111411	0.000731565	
162	83700	0.877664	0.0500611	0.0749068	0.000731565	
163	83600	0.75582	0.0500611	0.109931	0.000731565	
164	83500	0.817975	0.0500611	0.0650409	0.000731565	
165	83400	0.815344	0.0500611	0.0762223	0.000731565	
166	83300	0.8456	0.0500611	0.0821418	0.000731565	
167	83200	0.807287	0.0500611	0.114699	0.000731565	
168	83100	0.700077	0.0500611	0.0808264	0.000731565	
169	83000	0.763219	0.0500611	0.0834573	0.000731565	
170	82900	0.723591	0.0500611	0.103354	0.000731565	
171	82800	0.743487	0.0500611	0.0673429	0.000731565	
172	82700	0.774236	0.0500611	0.0837861	0.000731565	
173	82600	0.746776	0.0500611	0.0811552	0.000731565	
174	82500	0.882432	0.0500611	0.0972696	0.000731565	
175	82400	0.756477	0.0500611	0.0851016	0.000731565	
176	82300	0.779498	0.0500611	0.069645	0.000731565	
177	82200	0.739377	0.0500611	0.0758934	0.000731565	
178	82100	0.758615	0.0500611	0.0655342	0.000731565	
179	82000	0.769303	0.0500611	0.0681651	0.000731565	
180	81900	0.74694	0.0500611	0.108122	0.000731565	
181	81800	0.672782	0.0500611	0.0952964	0.000731565	
182	81700	0.720302	0.0500611	0.0882258	0.000731565	
183	81600	0.806136	0.0500611	0.0875681	0.000731565	
184	81500	0.72096	0.0500611	0.0929943	0.000731565	
185	81400	0.768974	0.0500611	0.0951319	0.000731565	
186	81300	0.722769	0.0500611	0.0599435	0.000731565	
187	81200	0.724084	0.0500611	0.0941453	0.000731565	
188	81100	0.736417	0.0500611	0.0648765	0.000731565	
189	81000	0.75138	0.0500611	0.0770444	0.000731565	
190	80900	0.849875	0.0500611	0.070796	0.000731565	
191	80800	0.75286	0.0500611	0.0831284	0.000731565	
192	80700	0.85859	0.0500611	0.0535307	0.000731565	
193	80600	0.753682	0.0500611	0.0530374	0.000731565	
194	80500	0.728853	0.0500611	0.0786887	0.000731565	
195	80400	0.652885	0.0500611	0.0722759	0.000731565	
196	80300	0.785746	0.0500611	0.0948031	0.000731565	
197	80200	0.716685	0.0500611	0.0458024	0.000731565	
198	80100	0.731319	0.0500611	0.0528729	0.000731565	
199	80000	0.78476	0.0500611	0.0730981	0.000731565	
200	79900	0.701228	0.0392909	0.0633966	0.000649349	
201	79800	0.756806	0.0392909	0.0405405	0.000649349	
202	79700	0.678866	0.0392909	0.0796753	0.000649349	
203	79600	0.726222	0.0392909	0.0675074	0.000649349	
204	79500	0.704024	0.0392909	0.0505709	0.000649349	
205	79400	0.717671	0.0392909	0.0658631	0.000649349	
206	79300	0.762561	0.0392909	0.0505709	0.000649349	
207	79200	0.876677	0.0392909	0.0578059	0.000649349	
208	79100	0.801532	0.0392909	0.0584636	0.000649349	
209	79000	0.779169	0.0392909	0.0638899	0.000649349	
210	78900	0.772921	0.0392909	0.0744135	0.000649349	
211	78800	0.843298	0.0392909	0.068494	0.000649349	
212	78700	0.881939	0.0392909	0.046789	0.000649349	
213	78600	0.714218	0.0392909	0.0656986	0.000649349	
214	78500	0.740528	0.0392909	0.0532018	0.000649349	
215	78400	0.701228	0.0392909	0.0660275	0.000649349	
216	78300	0.752696	0.0392909	0.0594502	0.000649349	
217	78200	0.768974	0.0392909	0.063561	0.000649349	
218	78100	0.707148	0.0392909	0.058628	0.000649349	
219	78000	0.818797	0.0392909	0.0578059	0.000649349	
220	77900	0.764699	0.0392909	0.0606012	0.000649349	
221	77800	0.793968	0.0392909	0.0921722	0.000649349	
222	77700	0.814193	0.0392909	0.058628	0.000649349	
223	77600	0.708792	0.0392909	0.0388962	0.000649349	
224	77500	0.631674	0.0392909	0.0658631	0.000649349	
225	77400	0.751216	0.0392909	0.0270571	0.000649349	
226	77300	0.758122	0.0392909	0.0620811	0.000649349	
227	77200	0.739212	0.0392909	0.0217953	0.000649349	
228	77100	0.75286	0.0392909	0.0541884	0.000649349	
229	77000	0.672124	0.0392909	0.0439936	0.000649349	
230	76900	0.637264	0.0392909	0.0326478	0.000649349	
231	76800	0.68758	0.0392909	0.0578059	0.000649349	
232	76700	0.776538	0.0392909	0.0558327	0.000649349	
233	76600	0.848066	0.0392909	0.051393	0.000649349	
234	76500	0.747763	0.0392909	0.0500776	0.000649349	
235	76400	0.743981	0.0392909	0.0453091	0.000649349	
236	76300	0.89608	0.0392909	0.0387318	0.000649349	
237	76200	0.763219	0.0392909	0.0607657	0.000649349	
238	76100	0.70353	0.0392909	0.049091	0.000649349	
239	76000	0.752367	0.0392909	0.050242	0.000649349	
240	75900	0.718	0.0392909	0.0484333	0.000649349	
241	75800	0.806794	0.0392909	0.04794	0.000649349	
242	75700	0.761904	0.0392909	0.0541884	0.000649349	
243	75600	0.859248	0.0392909	0.0214664	0.000649349	
244	75500	0.82817	0.0392909	0.0606012	0.000649349	
245	75400	0.699584	0.0392909	0.0484333	0.000649349	
246	75300	0.754833	0.0392909	0.0528729	0.000649349	
247	75200	0.752202	0.0392909	0.0610945	0.000649349	
248	75100	0.771441	0.0392909	0.0561616	0.000649349	
249	75000	0.862865	0.0392909	0.0263994	0.000649349	
250	74900	0.743816	0.0392909	0.0331411	0.000649349	
251	74800	0.777854	0.0392909	0.0559971	0.000649349	
252	74700	0.724742	0.0392909	0.0564904	0.000649349	
253	74600	0.777196	0.0392909	0.0388962	0.000649349	
254	74500	0.686265	0.0392909	0.0277148	0.000649349	
255	74400	0.803669	0.0392909	0.0349499	0.000649349	
256	74300	0.776209	0.0392909	0.0564904	0.000649349	
257	74200	0.804985	0.0392909	0.0403761	0.000649349	
258	74100	0.783938	0.0392909	0.019	0.000649349	
259	74000	0.777525	0.0392909	0.0528729	0.000649349	
260	73900	0.802847	0.0392909	0.0459668	0.000649349	
261	73800	0.813207	0.0392909	0.0431714	0.000649349	
262	73700	0.711916	0.0392909	0.0566549	0.000649349	
263	73600	0.695473	0.0392909	0.0408694	0.000649349	
264	73500	0.771934	0.0392909	0.035772	0.000649349	
265	73400	0.706161	0.0392909	0.0601079	0.000649349	
266	73300	0.674919	0.0392909	0.0573126	0.000649349	
267	73200	0.711259	0.0392909	0.0555038	0.000649349	
268	73100	0.631345	0.0392909	0.0217953	0.000649349	
269	73000	0.656338	0.0392909	0.0384029	0.000649349	
270	72900	0.779827	0.0392909	0.0461312	0.000649349	
271	72800	0.71093	0.0392909	0.0606012	0.000649349	
272	72700	0.788048	0.0392909	0.0530374	0.000649349	
273	72600	0.708957	0.0392909	0.0403761	0.000649349	
274	72500	0.792159	0.0392909	0.0602724	0.000649349	
275	72400	0.762233	0.0392909	0.0469534	0.000649349	
276	72300	0.8382	0.0392909	0.0579703	0.000649349	
277	72200	0.76733	0.0392909	0.0645476	0.000649349	
278	72100	0.727373	0.0392909	0.0408694	0.000649349	
279	72000	0.693993	0.0392909	0.0344566	0.000649349	
280	71900	0.703201	0.0392909	0.050242	0.000649349	
281	71800	0.745789	0.0392909	0.0403761	0.000649349	
282	71700	0.724249	0.0392909	0.0597791	0.000649349	
283	71600	0.766508	0.0392909	0.055175	0.000649349	
284	71500	0.700899	0.0392909	0.0459668	0.000649349	
285	71400	0.801203	0.0392909	0.0553394	0.000649349	
286	71300	0.782293	0.0392909	0.0532018	0.000649349	
287	71200	0.689882	0.0392909	0.0632321	0.000649349	
288	71100	0.703695	0.0392909	0.049091	0.000649349	
289	71000	0.744145	0.0392909	0.0536951	0.000649349	
290	70900	0.691691	0.0392909	0.0272215	0.000649349	
291	70800	0.722769	0.0392909	0.0446513	0.000649349	
292	70700	0.667191	0.0392909	0.0494199	0.000649349	
293	70600	0.729017	0.0392909	0.0482688	0.000649349	
294	70500	0.707806	0.0392909	0.0569837	0.000649349	
295	70400	0.699913	0.0392909	0.0527085	0.000649349	
296	70300	0.7573	0.0392909	0.0941453	0.000649349	
297	70200	0.735101	0.0392909	0.0615878	0.000649349	
298	70100	0.655845	0.0392909	0.0678362	0.000649349	
299	70000	0.780485	0.0392909	0.0466245	0.000649349	
300	69900	0.717178	0.0352787	0.0737558	0.000287599	
301	69800	0.789857	0.0352787	0.0559971	0.000287599	
302	69700	0.693007	0.0352787	0.0459668	0.000287599	
303	69600	0.715041	0.0352787	0.0846083	0.000287599	
304	69500	0.653707	0.0352787	0.0329767	0.000287599	
305	69400	0.756477	0.0352787	0.0691517	0.000287599	
306	69300	0.719151	0.0352787	0.0597791	0.000287599	
307	69200	0.647459	0.0352787	0.0533662	0.000287599	
308	69100	0.722604	0.0352787	0.0535307	0.000287599	
309	69000	0.739541	0.0352787	0.0556683	0.000287599	
310	68900	0.706161	0.0352787	0.0671785	0.000287599	
311	68800	0.72392	0.0352787	0.0694806	0.000287599	
312	68700	0.72392	0.0352787	0.0517219	0.000287599	
313	68600	0.787555	0.0352787	0.0453091	0.000287599	
314	68500	0.740856	0.0352787	0.0722759	0.000287599	
315	68400	0.707312	0.0352787	0.0421849	0.000287599	
316	68300	0.791337	0.0352787	0.0508997	0.000287599	
317	68200	0.697611	0.0352787	0.0464601	0.000287599	
318	68100	0.803998	0.0352787	0.0443225	0.000287599	
319	68000	0.668177	0.0352787	0.0530374	0.000287599	
320	67900	0.709614	0.0352787	0.0760578	0.000287599	
321	67800	0.705339	0.0352787	0.0678362	0.000287599	
322	67700	0.631016	0.0352787	0.0597791	0.000287599	
323	67600	0.722111	0.0352787	0.0888835	0.000287599	
324	67500	0.724249	0.0352787	0.0627388	0.000287599	
325	67400	0.716356	0.0352787	0.0617523	0.000287599	
326	67300	0.661765	0.0352787	0.0676718	0.000287599	
327	67200	0.708628	0.0352787	0.0643832	0.000287599	
328	67100	0.641046	0.0352787	0.0783599	0.000287599	
329	67000	0.721782	0.0352787	0.0584636	0.000287599	
330	66900	0.758615	0.0352787	0.0673429	0.000287599	
331	66800	0.725729	0.0352787	0.0959541	0.000287599	
332	66700	0.735101	0.0352787	0.0633966	0.000287599	
333	66600	0.714547	0.0352787	0.0522152	0.000287599	
334	66500	0.751545	0.0352787	0.0581348	0.000287599	
335	66400	0.751216	0.0352787	0.0727692	0.000287599	
336	66300	0.80778	0.0352787	0.0546817	0.000287599	
337	66200	0.747598	0.0352787	0.0576415	0.000287599	
338	66100	0.798901	0.0352787	0.0716182	0.000287599	
339	66000	0.782458	0.0352787	0.0716182	0.000287599	
340	65900	0.718494	0.0352787	0.0783599	0.000287599	
341	65800	0.725893	0.0352787	0.061259	0.000287599	
342	65700	0.739048	0.0352787	0.0827995	0.000287599	
343	65600	0.754175	0.0352787	0.0701383	0.000287599	
344	65500	0.682154	0.0352787	0.0781955	0.000287599	
345	65400	0.712081	0.0352787	0.0584636	0.000287599	
346	65300	0.6616	0.0352787	0.081813	0.000287599	
347	65200	0.701886	0.0352787	0.0773733	0.000287599	
348	65100	0.668506	0.0352787	0.0905278	0.000287599	
349	65000	0.70501	0.0352787	0.0878969	0.000287599	
350	64900	0.79775	0.0352787	0.0862526	0.000287599	
351	64800	0.73691	0.0352787	0.0893768	0.000287599	
352	64700	0.741185	0.0352787	0.0923366	0.000287599	
353	64600	0.695309	0.0352787	0.0724403	0.000287599	
354	64500	0.749242	0.0352787	0.0642187	0.000287599	
355	64400	0.636442	0.0352787	0.0816485	0.000287599	
356	64300	0.738226	0.0352787	0.0660275	0.000287599	
357	64200	0.672288	0.0352787	0.0721115	0.000287599	
358	64100	0.705504	0.0352787	0.0809908	0.000287599	
359	64000	0.702379	0.0352787	0.0666852	0.000287599	
360	63900	0.710765	0.0352787	0.0860882	0.000287599	
361	63800	0.733457	0.0352787	0.0742491	0.000287599	
362	63700	0.784102	0.0352787	0.086417	0.000287599	
363	63600	0.80071	0.0352787	0.0763867	0.000287599	
364	63500	0.708792	0.0352787	0.0744135	0.000287599	
365	63400	0.83672	0.0352787	0.0581348	0.000287599	
366	63300	0.71241	0.0352787	0.0832928	0.000287599	
367	63200	0.699584	0.0352787	0.0827995	0.000287599	
368	63100	0.701557	0.0352787	0.0992427	0.000287599	
369	63000	0.746283	0.0352787	0.0888835	0.000287599	
370	62900	0.673275	0.0352787	0.0831284	0.000287599	
371	62800	0.640882	0.0352787	0.0801686	0.000287599	
372	62700	0.646966	0.0352787	0.0775377	0.000287599	
373	62600	0.738554	0.0352787	0.0671785	0.000287599	
374	62500	0.722276	0.0352787	0.0806619	0.000287599	
375	62400	0.719151	0.0352787	0.0806619	0.000287599	
376	62300	0.7573	0.0352787	0.086417	0.000287599	
377	62200	0.805149	0.0352787	0.0897057	0.000287599	
378	62100	0.68906	0.0352787	0.0747424	0.000287599	
379	62000	0.756477	0.0352787	0.0727692	0.000287599	
380	61900	0.670973	0.0352787	0.111246	0.000287599	
381	61800	0.670479	0.0352787	0.0689873	0.000287599	
382	61700	0.641704	0.0352787	0.0847727	0.000287599	
383	61600	0.67903	0.0352787	0.0892124	0.000287599	
384	61500	0.665547	0.0352787	0.0827995	0.000287599	
385	61400	0.685443	0.0352787	0.0887191	0.000287599	
386	61300	0.64006	0.0352787	0.086417	0.000287599	
387	61200	0.714712	0.0352787	0.0837861	0.000287599	
388	61100	0.714712	0.0352787	0.0900345	0.000287599	
389	61000	0.718658	0.0352787	0.0760578	0.000287599	
390	60900	0.757793	0.0352787	0.0773733	0.000287599	
391	60800	0.734444	0.0352787	0.0862526	0.000287599	
392	60700	0.671302	0.0352787	0.103025	0.000287599	
393	60600	0.677057	0.0352787	0.0786887	0.000287599	
394	60500	0.629371	0.0352787	0.0875681	0.000287599	
395	60400	0.752367	0.0352787	0.0849372	0.000287599	
396	60300	0.714383	0.0352787	0.0804975	0.000287599	
397	60200	0.67459	0.0352787	0.0893768	0.000287599	
398	60100	0.736746	0.0352787	0.0661919	0.000287599	
399	60000	0.62822	0.0352787	0.0671785	0.000287599	
400	59900	0.783773	0.0351143	0.0959541	-0.00262285	
401	59800	0.718329	0.0351143	0.079182	-0.00262285	
402	59700	0.73395	0.0351143	0.113548	-0.00262285	
403	59600	0.74694	0.0351143	0.0877325	-0.00262285	
404	59500	0.730826	0.0351143	0.0767156	-0.00262285	
405	59400	0.669822	0.0351143	0.0653698	-0.00262285	
406	59300	0.706161	0.0351143	0.0637254	-0.00262285	
407	59200	0.693171	0.0351143	0.0688228	-0.00262285	
408	59100	0.733786	0.0351143	0.0666852	-0.00262285	
409	59000	0.801203	0.0351143	0.0931588	-0.00262285	
410	58900	0.706326	0.0351143	0.0703027	-0.00262285	
411	58800	0.769139	0.0351143	0.0781955	-0.00262285	
412	58700	0.780978	0.0351143	0.069645	-0.00262285	
413	58600	0.747105	0.0351143	0.0762223	-0.00262285	
414	58500	0.665053	0.0351143	0.0573126	-0.00262285	
415	58400	0.798079	0.0351143	0.0601079	-0.00262285	
416	58300	0.718658	0.0351143	0.0683295	-0.00262285	
417	58200	0.776703	0.0351143	0.105327	-0.00262285	
418	58100	0.711259	0.0351143	0.0905278	-0.00262285	
419	58000	0.754669	0.0351143	0.0775377	-0.00262285	
420	57900	0.742994	0.0351143	0.0786887	-0.00262285	
421	57800	0.653379	0.0351143	0.0734269	-0.00262285	
422	57700	0.741021	0.0351143	0.101709	-0.00262285	
423	57600	0.792653	0.0351143	0.0666852	-0.00262285	
424	57500	0.746447	0.0351143	0.0642187	-0.00262285	
425	57400	0.798243	0.0351143	0.0675074	-0.00262285	
426	57300	0.737403	0.0351143	0.0936521	-0.00262285	
427	57200	0.708299	0.0351143	0.0485977	-0.00262285	
428	57100	0.793475	0.0351143	0.0566549	-0.00262285	
429	57000	0.782293	0.0351143	0.0844439	-0.00262285	
430	56900	0.638415	0.0351143	0.0714537	-0.00262285	
431	56800	0.70649	0.0351143	0.0821418	-0.00262285	
432	56700	0.745296	0.0351143	0.0530374	-0.00262285	
433	56600	0.760095	0.0351143	0.0652053	-0.00262285	
434	56500	0.695802	0.0351143	0.0587925	-0.00262285	
435	56400	0.767166	0.0351143	0.0637254	-0.00262285	
436	56300	0.691691	0.0351143	0.075729	-0.00262285	
437	56200	0.837214	0.0351143	0.0693161	-0.00262285	
438	56100	0.727044	0.0351143	0.0758934	-0.00262285	
439	56000	0.781636	0.0351143	0.097434	-0.00262285	
440	55900	0.737732	0.0351143	0.058628	-0.00262285	
441	55800	0.685114	0.0351143	0.0604368	-0.00262285	
442	55700	0.684292	0.0351143	0.0989139	-0.00262285	
443	55600	0.691362	0.0351143	0.0527085	-0.00262285	
444	55500	0.662916	0.0351143	0.0392251	-0.00262285	
445	55400	0.679359	0.0351143	0.0408694	-0.00262285	
446	55300	0.736088	0.0351143	0.0581348	-0.00262285	
447	55200	0.678208	0.0351143	0.0571482	-0.00262285	
448	55100	0.728524	0.0351143	0.0739202	-0.00262285	
449	55000	0.708628	0.0351143	0.0610945	-0.00262285	
450	54900	0.76881	0.0351143	0.0760578	-0.00262285	
451	54800	0.718658	0.0351143	0.0397184	-0.00262285	
452	54700	0.683963	0.0351143	0.0548461	-0.00262285	
453	54600	0.752367	0.0351143	0.0727692	-0.00262285	
454	54500	0.766672	0.0351143	0.07688	-0.00262285	
455	54400	0.746447	0.0351143	0.0772089	-0.00262285	
456	54300	0.742665	0.0351143	0.0559971	-0.00262285	
457	54200	0.676235	0.0351143	0.0622456	-0.00262285	
458	54100	0.718823	0.0351143	0.0464601	-0.00262285	
459	54000	0.737239	0.0351143	0.0584636	-0.00262285	
460	53900	0.743652	0.0351143	0.0740847	-0.00262285	
461	53800	0.732799	0.0351143	0.0773733	-0.00262285	
462	53700	0.77588	0.0351143	0.0446513	-0.00262285	
463	53600	0.739377	0.0351143	0.055175	-0.00262285	
464	53500	0.701064	0.0351143	0.0336344	-0.00262285	
465	53400	0.805314	0.0351143	0.0951319	-0.00262285	
466	53300	0.766343	0.0351143	0.0589569	-0.00262285	
467	53200	0.70797	0.0351143	0.0740847	-0.00262285	
468	53100	0.669986	0.0351143	0.068494	-0.00262285	
469	53000	0.675741	0.0351143	0.0364297	-0.00262285	
470	52900	0.694322	0.0351143	0.0495843	-0.00262285	
471	52800	0.628878	0.0351143	0.0454735	-0.00262285	
472	52700	0.582837	0.0351143	0.0494199	-0.00262285	
473	52600	0.667684	0.0351143	0.0454735	-0.00262285	
474	52500	0.684785	0.0351143	0.0347854	-0.00262285	
475	52400	0.69646	0.0351143	0.0831284	-0.00262285	
476	52300	0.749078	0.0351143	0.0620811	-0.00262285	
477	52200	0.770948	0.0351143	0.0405405	-0.00262285	
478	52100	0.766343	0.0351143	0.0804975	-0.00262285	
479	52000	0.77884	0.0351143	0.0844439	-0.00262285	
480	51900	0.694322	0.0351143	0.049091	-0.00262285	
481	51800	0.763055	0.0351143	0.0318256	-0.00262285	
482	51700	0.701064	0.0351143	0.0403761	-0.00262285	
483	51600	0.682319	0.0351143	0.055175	-0.00262285	
484	51500	0.790186	0.0351143	0.036923	-0.00262285	
485	51400	0.668342	0.0351143	0.0388962	-0.00262285	
486	51300	0.754175	0.0351143	0.0453091	-0.00262285	
487	51200	0.822086	0.0351143	0.0545173	-0.00262285	
488	51100	0.785582	0.0351143	0.0365942	-0.00262285	
489	51000	0.737732	0.0351143	0.0387318	-0.00262285	
490	50900	0.803341	0.0351143	0.0709604	-0.00262285	
491	50800	0.838365	0.0351143	0.0356076	-0.00262285	
492	50700	0.789199	0.0351143	0.050242	-0.00262285	
493	50600	0.796599	0.0351143	0.0420204	-0.00262285	
494	50500	0.704353	0.0351143	0.0461312	-0.00262285	
495	50400	0.714218	0.0351143	0.0523796	-0.00262285	
496	50300	0.71093	0.0351143	0.0471178	-0.00262285	
497	50200	0.752038	0.0351143	0.0507353	-0.00262285	
498	50100	0.690211	0.0351143	0.0341277	-0.00262285	
499	50000	0.661929	0.0351143	0.0336344	-0.00262285	
500	49900	0.794461	0.0361338	0.0377452	-0.00311614	
501	49800	0.815673	0.0361338	0.0206443	-0.00311614	
502	49700	0.686594	0.0361338	0.0515575	-0.00311614	
503	49600	0.714712	0.0361338	0.0535307	-0.00311614	
504	49500	0.774729	0.0361338	0.064712	-0.00311614	
505	49400	0.788542	0.0361338	0.0290303	-0.00311614	
506	49300	0.795283	0.0361338	0.0438292	-0.00311614	
507	49200	0.775552	0.0361338	0.0384029	-0.00311614	
508	49100	0.797257	0.0361338	0.0587925	-0.00311614	
509	49000	0.779169	0.0361338	0.0582992	-0.00311614	
510	48900	0.698926	0.0361338	0.0469534	-0.00311614	
511	48800	0.780156	0.0361338	0.0599435	-0.00311614	
512	48700	0.695473	0.0361338	0.0280437	-0.00311614	
513	48600	0.699748	0.0361338	0.0505709	-0.00311614	
514	48500	0.775223	0.0361338	0.0533662	-0.00311614	
515	48400	0.722111	0.0361338	0.046789	-0.00311614	
516	48300	0.837707	0.0361338	0.0433359	-0.00311614	
517	48200	0.782293	0.0361338	0.0374163	-0.00311614	
518	48100	0.84116	0.0361338	0.0347854	-0.00311614	
519	48000	0.826526	0.0361338	0.0377452	-0.00311614	
520	47900	0.776045	0.0361338	0.0474467	-0.00311614	
521	47800	0.834747	0.0361338	0.0362653	-0.00311614	
522	47700	0.753024	0.0361338	0.035772	-0.00311614	
523	47600	0.801696	0.0361338	0.063561	-0.00311614	
524	47500	0.823895	0.0361338	0.0375808	-0.00311614	
525	47400	0.793968	0.0361338	0.0367586	-0.00311614	
526	47300	0.756806	0.0361338	0.0397184	-0.00311614	
527	47200	0.776538	0.0361338	0.0349499	-0.00311614	
528	47100	0.735266	0.0361338	0.0423493	-0.00311614	
529	47000	0.805807	0.0361338	0.0454735	-0.00311614	
530	46900	0.751545	0.0361338	0.0295236	-0.00311614	
531	46800	0.836391	0.0361338	0.0564904	-0.00311614	
532	46700	0.7573	0.0361338	0.0701383	-0.00311614	
533	46600	0.903973	0.0361338	0.0403761	-0.00311614	
534	46500	0.756313	0.0361338	0.0361009	-0.00311614	
535	46400	0.802683	0.0361338	0.0601079	-0.00311614	
536	46300	0.870922	0.0361338	0.0379096	-0.00311614	
537	46200	0.749078	0.0361338	0.0615878	-0.00311614	
538	46100	0.830308	0.0361338	0.0596146	-0.00311614	
539	46000	0.760095	0.0361338	0.0329767	-0.00311614	
540	45900	0.798737	0.0361338	0.0520508	-0.00311614	
541	45800	0.745954	0.0361338	0.0374163	-0.00311614	
542	45700	0.744803	0.0361338	0.0293592	-0.00311614	
543	45600	0.767988	0.0361338	0.0507353	-0.00311614	
544	45500	0.881939	0.0361338	0.0620811	-0.00311614	
545	45400	0.764206	0.0361338	0.0466245	-0.00311614	
546	45300	0.834583	0.0361338	0.0561616	-0.00311614	
547	45200	0.812549	0.0361338	0.0500776	-0.00311614	
548	45100	0.736088	0.0361338	0.0555038	-0.00311614	
549	45000	0.737732	0.0361338	0.0530374	-0.00311614	
550	44900	0.77029	0.0361338	0.0620811	-0.00311614	
551	44800	0.753518	0.0361338	0.0375808	-0.00311614	
552	44700	0.720467	0.0361338	0.0385674	-0.00311614	
553	44600	0.768481	0.0361338	0.0487621	-0.00311614	
554	44500	0.726386	0.0361338	0.0670141	-0.00311614	
555	44400	0.712081	0.0361338	0.057477	-0.00311614	
556	44300	0.647459	0.0361338	0.0471178	-0.00311614	
557	44200	0.71652	0.0361338	0.0454735	-0.00311614	
558	44100	0.815673	0.0361338	0.0582992	-0.00311614	
559	44000	0.767988	0.0361338	0.0880614	-0.00311614	
560	43900	0.760588	0.0361338	0.0495843	-0.00311614	
561	43800	0.750393	0.0361338	0.0525441	-0.00311614	
562	43700	0.761575	0.0361338	0.0482688	-0.00311614	
563	43600	0.726222	0.0361338	0.0497487	-0.00311614	
564	43500	0.740856	0.0361338	0.0699739	-0.00311614	
565	43400	0.729839	0.0361338	0.0716182	-0.00311614	
566	43300	0.751216	0.0361338	0.0446513	-0.00311614	
567	43200	0.766179	0.0361338	0.0405405	-0.00311614	
568	43100	0.78772	0.0361338	0.055175	-0.00311614	
569	43000	0.868291	0.0361338	0.0680007	-0.00311614	
570	42900	0.85563	0.0361338	0.0522152	-0.00311614	
571	42800	0.721618	0.0361338	0.0592858	-0.00311614	
572	42700	0.671795	0.0361338	0.0663564	-0.00311614	
573	42600	0.803998	0.0361338	0.0568193	-0.00311614	
574	42500	0.669328	0.0361338	0.0569837	-0.00311614	
575	42400	0.87454	0.0361338	0.0528729	-0.00311614	
576	42300	0.789364	0.0361338	0.055175	-0.00311614	
577	42200	0.708628	0.0361338	0.0821418	-0.00311614	
578	42100	0.71093	0.0361338	0.064712	-0.00311614	
579	42000	0.663409	0.0361338	0.058628	-0.00311614	
580	41900	0.788213	0.0361338	0.0650409	-0.00311614	
581	41800	0.794955	0.0361338	0.0637254	-0.00311614	
582	41700	0.697117	0.0361338	0.0952964	-0.00311614	
583	41600	0.77588	0.0361338	0.0484333	-0.00311614	
584	41500	0.772921	0.0361338	0.0744135	-0.00311614	
585	41400	0.732306	0.0361338	0.0652053	-0.00311614	
586	41300	0.708628	0.0361338	0.0727692	-0.00311614	
587	41200	0.748091	0.0361338	0.054024	-0.00311614	
588	41100	0.730497	0.0361338	0.0352787	-0.00311614	
589	41000	0.71093	0.0361338	0.0625744	-0.00311614	
590	40900	0.797586	0.0361338	0.0882258	-0.00311614	
591	40800	0.737074	0.0361338	0.0402117	-0.00311614	
592	40700	0.751873	0.0361338	0.0839506	-0.00311614	
593	40600	0.726222	0.0361338	0.0596146	-0.00311614	
594	40500	0.739541	0.0361338	0.0793465	-0.00311614	
595	40400	0.669328	0.0361338	0.0989139	-0.00311614	
596	40300	0.80219	0.0361338	0.0594502	-0.00311614	
597	40200	0.807945	0.0361338	0.0689873	-0.00311614	
598	40100	0.778018	0.0361338	0.0650409	-0.00311614	
599	40000	0.782293	0.0361338	0.0910211	-0.00311614	
600	39900	0.766508	0.0412805	0.0734269	-0.00120873	
601	39800	0.778676	0.0412805	0.0704671	-0.00120873	
602	39700	0.763548	0.0412805	0.0517219	-0.00120873	
603	39600	0.765686	0.0412805	0.0813197	-0.00120873	
604	39500	0.650912	0.0412805	0.0844439	-0.00120873	
605	39400	0.675248	0.0412805	0.0836217	-0.00120873	
606	39300	0.746776	0.0412805	0.0869103	-0.00120873	
607	39200	0.788871	0.0412805	0.0686584	-0.00120873	
608	39100	0.76289	0.0412805	0.0865815	-0.00120873	
609	39000	0.88457	0.0412805	0.0747424	-0.00120873	
610	38900	0.733457	0.0412805	0.101216	-0.00120873	
611	38800	0.801696	0.0412805	0.0790176	-0.00120873	
612	38700	0.828663	0.0412805	0.0788532	-0.00120873	
613	38600	0.76289	0.0412805	0.0742491	-0.00120873	
614	38500	0.714383	0.0412805	0.0500776	-0.00120873	
615	38400	0.769632	0.0412805	0.07688	-0.00120873	
616	38300	0.644993	0.0412805	0.0767156	-0.00120873	
617	38200	0.661929	0.0412805	0.0637254	-0.00120873	
618	38100	0.755491	0.0412805	0.0939809	-0.00120873	
619	38000	0.69646	0.0412805	0.0606012	-0.00120873	
620	37900	0.779498	0.0412805	0.0910211	-0.00120873	
621	37800	0.821593	0.0412805	0.0969407	-0.00120873	
622	37700	0.747105	0.0412805	0.069645	-0.00120873	
623	37600	0.835076	0.0412805	0.0703027	-0.00120873	
624	37500	0.787226	0.0412805	0.0661919	-0.00120873	
625	37400	0.722604	0.0412805	0.092501	-0.00120873	
626	37300	0.748749	0.0412805	0.0681651	-0.00120873	
627	37200	0.718494	0.0412805	0.0897057	-0.00120873	
628	37100	0.768645	0.0412805	0.0622456	-0.00120873	
629	37000	0.742172	0.0412805	0.0640543	-0.00120873	
630	36900	0.710108	0.0412805	0.0939809	-0.00120873	
631	36800	0.675906	0.0412805	0.0977629	-0.00120873	
632	36700	0.809096	0.0412805	0.0893768	-0.00120873	
633	36600	0.733786	0.0412805	0.142817	-0.00120873	
634	36500	0.755326	0.0412805	0.07688	-0.00120873	
635	36400	0.822579	0.0412805	0.0675074	-0.00120873	
636	36300	0.758451	0.0412805	0.085266	-0.00120873	
637	36200	0.847408	0.0412805	0.071947	-0.00120873	
638	36100	0.713725	0.0412805	0.0979273	-0.00120873	
639	36000	0.843462	0.0412805	0.0874036	-0.00120873	
640	35900	0.706819	0.0412805	0.0811552	-0.00120873	
641	35800	0.797092	0.0412805	0.0857593	-0.00120873	
642	35700	0.668013	0.0412805	0.10582	-0.00120873	
643	35600	0.738719	0.0412805	0.0847727	-0.00120873	
644	35500	0.824224	0.0412805	0.081813	-0.00120873	
645	35400	0.644664	0.0412805	0.0990783	-0.00120873	
646	35300	0.705668	0.0412805	0.084115	-0.00120873	
647	35200	0.75434	0.0412805	0.0999005	-0.00120873	
648	35100	0.73247	0.0412805	0.084115	-0.00120873	
649	35000	0.665547	0.0412805	0.0837861	-0.00120873	
650	34900	0.727209	0.0412805	0.0744135	-0.00120873	
651	34800	0.828334	0.0412805	0.0880614	-0.00120873	
652	34700	0.673933	0.0412805	0.0656986	-0.00120873	
653	34600	0.817153	0.0412805	0.0804975	-0.00120873	
654	34500	0.746776	0.0412805	0.0712893	-0.00120873	
655	34400	0.659791	0.0412805	0.0908567	-0.00120873	
656	34300	0.722933	0.0412805	0.0877325	-0.00120873	
657	34200	0.662916	0.0412805	0.0964474	-0.00120873	
658	34100	0.7499	0.0412805	0.0869103	-0.00120873	
659	34000	0.75878	0.0412805	0.0943098	-0.00120873	
660	33900	0.760259	0.0412805	0.0795109	-0.00120873	
661	33800	0.701886	0.0412805	0.103682	-0.00120873	
662	33700	0.767166	0.0412805	0.0897057	-0.00120873	
663	33600	0.755984	0.0412805	0.103354	-0.00120873	
664	33500	0.766343	0.0412805	0.0911856	-0.00120873	
665	33400	0.745461	0.0412805	0.097434	-0.00120873	
666	33300	0.784595	0.0412805	0.068494	-0.00120873	
667	33200	0.716027	0.0412805	0.0882258	-0.00120873	
668	33100	0.787226	0.0412805	0.0905278	-0.00120873	
669	33000	0.743158	0.0412805	0.100887	-0.00120873	
670	32900	0.772592	0.0412805	0.0971051	-0.00120873	
671	32800	0.729346	0.0412805	0.0887191	-0.00120873	
672	32700	0.681496	0.0412805	0.105327	-0.00120873	
673	32600	0.769961	0.0412805	0.0888835	-0.00120873	
674	32500	0.699584	0.0412805	0.0823062	-0.00120873	
675	32400	0.798901	0.0412805	0.0855949	-0.00120873	
676	32300	0.794461	0.0412805	0.0898701	-0.00120873	
677	32200	0.738883	0.0412805	0.0946386	-0.00120873	
678	32100	0.845106	0.0412805	0.114042	-0.00120873	
679	32000	0.791008	0.0412805	0.0781955	-0.00120873	
680	31900	0.713067	0.0412805	0.0660275	-0.00120873	
681	31800	0.787062	0.0412805	0.114206	-0.00120873	
682	31700	0.752531	0.0412805	0.0726048	-0.00120873	
683	31600	0.708463	0.0412805	0.0813197	-0.00120873	
684	31500	0.750229	0.0412805	0.0795109	-0.00120873	
685	31400	0.792159	0.0412805	0.101051	-0.00120873	
686	31300	0.679359	0.0412805	0.110424	-0.00120873	
687	31200	0.798408	0.0412805	0.0860882	-0.00120873	
688	31100	0.715369	0.0412805	0.1073	-0.00120873	
689	31000	0.755491	0.0412805	0.0821418	-0.00120873	
690	30900	0.758122	0.0412805	0.0703027	-0.00120873	
691	30800	0.658969	0.0412805	0.0737558	-0.00120873	
692	30700	0.790022	0.0412805	0.0494199	-0.00120873	
693	30600	0.696624	0.0412805	0.0740847	-0.00120873	
694	30500	0.626741	0.0412805	0.0775377	-0.00120873	
695	30400	0.667355	0.0412805	0.0857593	-0.00120873	
696	30300	0.689225	0.0412805	0.0711249	-0.00120873	
697	30200	0.654858	0.0412805	0.0898701	-0.00120873	
698	30100	0.701886	0.0412805	0.0816485	-0.00120873	
699	30000	0.683963	0.0412805	0.0906923	-0.00120873	
700	29900	0.711588	0.0482853	0.0844439	0.0031816	
701	29800	0.673933	0.0482853	0.0666852	0.0031816	
702	29700	0.796763	0.0482853	0.0803331	0.0031816	
703	29600	0.696789	0.0482853	0.0701383	0.0031816	
704	29500	0.808931	0.0482853	0.0813197	0.0031816	
705	29400	0.803505	0.0482853	0.0875681	0.0031816	
706	29300	0.773907	0.0482853	0.102696	0.0031816	
707	29200	0.735923	0.0482853	0.0837861	0.0031816	
708	29100	0.705339	0.0482853	0.0535307	0.0031816	
709	29000	0.831294	0.0482853	0.0658631	0.0031816	
710	28900	0.6297	0.0482853	0.0918433	0.0031816	
711	28800	0.732306	0.0482853	0.0597791	0.0031816	
712	28700	0.728195	0.0482853	0.0796753	0.0031816	
713	28600	0.867798	0.0482853	0.0474467	0.0031816	
714	28500	0.748585	0.0482853	0.0701383	0.0031816	
715	28400	0.667684	0.0482853	0.0734269	0.0031816	
716	28300	0.775387	0.0482853	0.0681651	0.0031816	
717	28200	0.753847	0.0482853	0.0693161	0.0031816	
718	28100	0.819784	0.0482853	0.0949675	0.0031816	
719	28000	0.819455	0.0482853	0.0772089	0.0031816	
720	27900	0.731319	0.0482853	0.0655342	0.0031816	
721	27800	0.734772	0.0482853	0.0561616	0.0031816	
722	27700	0.694815	0.0482853	0.0411983	0.0031816	
723	27600	0.68051	0.0482853	0.0594502	0.0031816	
724	27500	0.700242	0.0482853	0.0504065	0.0031816	
725	27400	0.686101	0.0482853	0.0726048	0.0031816	
726	27300	0.753682	0.0482853	0.0666852	0.0031816	
727	27200	0.676728	0.0482853	0.0594502	0.0031816	
728	27100	0.729182	0.0482853	0.071947	0.0031816	
729	27000	0.684456	0.0482853	0.0464601	0.0031816	
730	26900	0.691198	0.0482853	0.0711249	0.0031816	
731	26800	0.66308	0.0482853	0.0591213	0.0031816	
732	26700	0.721453	0.0482853	0.07688	0.0031816	
733	26600	0.728524	0.0482853	0.09135	0.0031816	
734	26500	0.823401	0.0482853	0.0851016	0.0031816	
735	26400	0.790679	0.0482853	0.0625744	0.0031816	
736	26300	0.748585	0.0482853	0.0691517	0.0031816	
737	26200	0.769468	0.0482853	0.0300169	0.0031816	
738	26100	0.717178	0.0482853	0.0535307	0.0031816	
739	26000	0.740034	0.0482853	0.0637254	0.0031816	
740	25900	0.740856	0.0482853	0.0900345	0.0031816	
741	25800	0.686429	0.0482853	0.0582992	0.0031816	
742	25700	0.654858	0.0482853	0.0675074	0.0031816	
743	25600	0.81518	0.0482853	0.0786887	0.0031816	
744	25500	0.776867	0.0482853	0.0749068	0.0031816	
745	25400	0.830965	0.0482853	0.0622456	0.0031816	
746	25300	0.822415	0.0482853	0.0578059	0.0031816	
747	25200	0.691034	0.0482853	0.0767156	0.0031816	
748	25100	0.705504	0.0482853	0.0530374	0.0031816	
749	25000	0.628878	0.0482853	0.0370875	0.0031816	
750	24900	0.71948	0.0482853	0.0601079	0.0031816	
751	24800	0.747269	0.0482853	0.0579703	0.0031816	
752	24700	0.74842	0.0482853	0.050242	0.0031816	
753	24600	0.701228	0.0482853	0.0533662	0.0031816	
754	24500	0.728524	0.0482853	0.0548461	0.0031816	
755	24400	0.772263	0.0482853	0.0592858	0.0031816	
756	24300	0.68495	0.0482853	0.0727692	0.0031816	
757	24200	0.672946	0.0482853	0.0508997	0.0031816	
758	24100	0.847573	0.0482853	0.0643832	0.0031816	
759	24000	0.718494	0.0482853	0.0698094	0.0031816	
760	23900	0.758451	0.0482853	0.0606012	0.0031816	
761	23800	0.777689	0.0482853	0.0462957	0.0031816	
762	23700	0.720467	0.0482853	0.0469534	0.0031816	
763	23600	0.681661	0.0482853	0.04794	0.0031816	
764	23500	0.745954	0.0482853	0.0599435	0.0031816	
765	23400	0.696295	0.0482853	0.0375808	0.0031816	
766	23300	0.719151	0.0482853	0.0365942	0.0031816	
767	23200	0.720796	0.0482853	0.0507353	0.0031816	
768	23100	0.693007	0.0482853	0.0453091	0.0031816	
769	23000	0.676892	0.0482853	0.0436647	0.0031816	
770	22900	0.70205	0.0482853	0.0668496	0.0031816	
771	22800	0.682154	0.0482853	0.0487621	0.0031816	
772	22700	0.685443	0.0482853	0.0487621	0.0031816	
773	22600	0.727373	0.0482853	0.04794	0.0031816	
774	22500	0.707148	0.0482853	0.0640543	0.0031816	
775	22400	0.690705	0.0482853	0.0420204	0.0031816	
776	22300	0.698104	0.0482853	0.0308391	0.0031816	
777	22200	0.660449	0.0482853	0.0545173	0.0031816	
778	22100	0.714054	0.0482853	0.0416916	0.0031816	
779	22000	0.703037	0.0482853	0.0587925	0.0031816	
780	21900	0.699748	0.0482853	0.0548461	0.0031816	
781	21800	0.714547	0.0482853	0.0454735	0.0031816	
782	21700	0.761904	0.0482853	0.0476111	0.0031816	
783	21600	0.697282	0.0482853	0.0365942	0.0031816	
784	21500	0.778183	0.0482853	0.0423493	0.0031816	
785	21400	0.700899	0.0482853	0.0326478	0.0031816	
786	21300	0.710765	0.0482853	0.0456379	0.0031816	
787	21200	0.770125	0.0482853	0.044158	0.0031816	
788	21100	0.691362	0.0482853	0.0469534	0.0031816	
789	21000	0.698762	0.0482853	0.0370875	0.0031816	
790	20900	0.697446	0.0482853	0.036923	0.0031816	
791	20800	0.677715	0.0482853	0.0397184	0.0031816	
792	20700	0.643019	0.0482853	0.0569837	0.0031816	
793	20600	0.697117	0.0482853	0.0592858	0.0031816	
794	20500	0.732635	0.0482853	0.0492554	0.0031816	
795	20400	0.62559	0.0482853	0.0545173	0.0031816	
796	20300	0.714218	0.0482853	0.0408694	0.0031816	
797	20200	0.724413	0.0482853	0.0637254	0.0031816	
798	20100	0.710272	0.0482853	0.0272215	0.0031816	
799	20000	0.695802	0.0482853	0.0532018	0.0031816	
800	19900	0.719151	0.036512	0.0670141	0.00392154	
801	19800	0.732142	0.036512	0.0536951	0.00392154	
802	19700	0.702215	0.036512	0.0331411	0.00392154	
803	19600	0.669657	0.036512	0.046789	0.00392154	
804	19500	0.714547	0.036512	0.0438292	0.00392154	
805	19400	0.72244	0.036512	0.0342921	0.00392154	
806	19300	0.777689	0.036512	0.0390606	0.00392154	
807	19200	0.673275	0.036512	0.0525441	0.00392154	
808	19100	0.706326	0.036512	0.054024	0.00392154	
809	19000	0.696131	0.036512	0.0568193	0.00392154	
810	18900	0.651405	0.036512	0.040705	0.00392154	
811	18800	0.714547	0.036512	0.0464601	0.00392154	
812	18700	0.675248	0.036512	0.0428426	0.00392154	
813	18600	0.658805	0.036512	0.0594502	0.00392154	
814	18500	0.659134	0.036512	0.0606012	0.00392154	
815	18400	0.591881	0.036512	0.0642187	0.00392154	
816	18300	0.747598	0.036512	0.0476111	0.00392154	
817	18200	0.749407	0.036512	0.0487621	0.00392154	
818	18100	0.674097	0.036512	0.0456379	0.00392154	
819	18000	0.718987	0.036512	0.0416916	0.00392154	
820	17900	0.604378	0.036512	0.0550105	0.00392154	
821	17800	0.703695	0.036512	0.0482688	0.00392154	
822	17700	0.735266	0.036512	0.0645476	0.00392154	
823	17600	0.618519	0.036512	0.0546817	0.00392154	
824	17500	0.696624	0.036512	0.0500776	0.00392154	
825	17400	0.69646	0.036512	0.0461312	0.00392154	
826	17300	0.635127	0.036512	0.0601079	0.00392154	
827	17200	0.60816	0.036512	0.0706316	0.00392154	
828	17100	0.626741	0.036512	0.0446513	0.00392154	
829	17000	0.638744	0.036512	0.0510642	0.00392154	
830	16900	0.780485	0.036512	0.0485977	0.00392154	
831	16800	0.658312	0.036512	0.0591213	0.00392154	
832	16700	0.731319	0.036512	0.0633966	0.00392154	
833	16600	0.783773	0.036512	0.0711249	0.00392154	
834	16500	0.702215	0.036512	0.0604368	0.00392154	
835	16400	0.706819	0.036512	0.0698094	0.00392154	
836	16300	0.69794	0.036512	0.054024	0.00392154	
837	16200	0.676728	0.036512	0.0504065	0.00392154	
838	16100	0.666698	0.036512	0.0431714	0.00392154	
839	16000	0.651077	0.036512	0.04794	0.00392154	
840	15900	0.691362	0.036512	0.0569837	0.00392154	
841	15800	0.659298	0.036512	0.058628	0.00392154	
842	15700	0.700077	0.036512	0.0569837	0.00392154	
843	15600	0.680674	0.036512	0.0763867	0.00392154	
844	15500	0.695144	0.036512	0.0742491	0.00392154	
845	15400	0.734444	0.036512	0.063561	0.00392154	
846	15300	0.768974	0.036512	0.0648765	0.00392154	
847	15200	0.695309	0.036512	0.0775377	0.00392154	
848	15100	0.700242	0.036512	0.0527085	0.00392154	
849	15000	0.660614	0.036512	0.0464601	0.00392154	
850	14900	0.73395	0.036512	0.0582992	0.00392154	
851	14800	0.662422	0.036512	0.0648765	0.00392154	
852	14700	0.646637	0.036512	0.0559971	0.00392154	
853	14600	0.661765	0.036512	0.0691517	0.00392154	
854	14500	0.662258	0.036512	0.061259	0.00392154	
855	14400	0.743816	0.036512	0.0834573	0.00392154	
856	14300	0.70649	0.036512	0.0517219	0.00392154	
857	14200	0.702873	0.036512	0.0675074	0.00392154	
858	14100	0.68495	0.036512	0.057477	0.00392154	
859	14000	0.668177	0.036512	0.0754001	0.00392154	
860	13900	0.663573	0.036512	0.064712	0.00392154	
861	13800	0.625918	0.036512	0.0857593	0.00392154	
862	13700	0.740692	0.036512	0.0740847	0.00392154	
863	13600	0.647459	0.036512	0.0462957	0.00392154	
864	13500	0.644993	0.036512	0.0510642	0.00392154	
865	13400	0.683798	0.036512	0.0754001	0.00392154	
866	13300	0.639402	0.036512	0.0834573	0.00392154	
867	13200	0.706161	0.036512	0.0786887	0.00392154	
868	13100	0.691198	0.036512	0.0638899	0.00392154	
869	13000	0.679359	0.036512	0.0770444	0.00392154	
870	12900	0.659956	0.036512	0.0500776	0.00392154	
871	12800	0.710765	0.036512	0.0601079	0.00392154	
872	12700	0.717836	0.036512	0.0640543	0.00392154	
873	12600	0.705668	0.036512	0.085266	0.00392154	
874	12500	0.769303	0.036512	0.0921722	0.00392154	
875	12400	0.594512	0.036512	0.0744135	0.00392154	
876	12300	0.699584	0.036512	0.0839506	0.00392154	
877	12200	0.630687	0.036512	0.070796	0.00392154	
878	12100	0.623287	0.036512	0.0622456	0.00392154	
879	12000	0.623123	0.036512	0.0630677	0.00392154	
880	11900	0.689882	0.036512	0.0637254	0.00392154	
881	11800	0.736088	0.036512	0.0773733	0.00392154	
882	11700	0.667684	0.036512	0.0742491	0.00392154	
883	11600	0.768481	0.036512	0.0837861	0.00392154	
884	11500	0.769632	0.036512	0.085266	0.00392154	
885	11400	0.63414	0.036512	0.0518863	0.00392154	
886	11300	0.707806	0.036512	0.0855949	0.00392154	
887	11200	0.667026	0.036512	0.0727692	0.00392154	
888	11100	0.63858	0.036512	0.0941453	0.00392154	
889	11000	0.66308	0.036512	0.0711249	0.00392154	
890	10900	0.664889	0.036512	0.0878969	0.00392154	
891	10800	0.594676	0.036512	0.0742491	0.00392154	
892	10700	0.643019	0.036512	0.0730981	0.00392154	
893	10600	0.616546	0.036512	0.0698094	0.00392154	
894	10500	0.680674	0.036512	0.0693161	0.00392154	
895	10400	0.7573	0.036512	0.0773733	0.00392154	
896	10300	0.709121	0.036512	0.0839506	0.00392154	
897	10200	0.718658	0.036512	0.0878969	0.00392154	
898	10100	0.606515	0.036512	0.106313	0.00392154	
899	10000	0.668506	0.036512	0.0793465	0.00392154	
900	9900	0.713396	0.0406885	0.0694806	0.00237588	
901	9800	0.63414	0.0406885	0.0854305	0.00237588	
902	9700	0.617039	0.0406885	0.0633966	0.00237588	
903	9600	0.660942	0.0406885	0.0883902	0.00237588	
904	9500	0.58333	0.0406885	0.0921722	0.00237588	
905	9400	0.572971	0.0406885	0.0629033	0.00237588	
906	9300	0.65305	0.0406885	0.0831284	0.00237588	
907	9200	0.756971	0.0406885	0.0938165	0.00237588	
908	9100	0.753189	0.0406885	0.0770444	0.00237588	
909	9000	0.692513	0.0406885	0.106971	0.00237588	
910	8900	0.570012	0.0406885	0.0948031	0.00237588	
911	8800	0.746118	0.0406885	0.0859238	0.00237588	
912	8700	0.722933	0.0406885	0.0796753	0.00237588	
913	8600	0.752367	0.0406885	0.127196	0.00237588	
914	8500	0.698926	0.0406885	0.0627388	0.00237588	
915	8400	0.734772	0.0406885	0.0633966	0.00237588	
916	8300	0.628714	0.0406885	0.0872392	0.00237588	
917	8200	0.752531	0.0406885	0.0895413	0.00237588	
918	8100	0.723098	0.0406885	0.0772089	0.00237588	
919	8000	0.636771	0.0406885	0.068494	0.00237588	
920	7900	0.624932	0.0406885	0.0857593	0.00237588	
921	7800	0.653543	0.0406885	0.0816485	0.00237588	
922	7700	0.827019	0.0406885	0.0811552	0.00237588	
923	7600	0.732635	0.0406885	0.0744135	0.00237588	
924	7500	0.739541	0.0406885	0.0778666	0.00237588	
925	7400	0.688567	0.0406885	0.068494	0.00237588	
926	7300	0.787555	0.0406885	0.0847727	0.00237588	
927	7200	0.63562	0.0406885	0.0709604	0.00237588	
928	7100	0.650254	0.0406885	0.0936521	0.00237588	
929	7000	0.656832	0.0406885	0.092501	0.00237588	
930	6900	0.6935	0.0406885	0.0849372	0.00237588	
931	6800	0.625096	0.0406885	0.0934876	0.00237588	
932	6700	0.747105	0.0406885	0.081813	0.00237588	
933	6600	0.768481	0.0406885	0.0967763	0.00237588	
934	6500	0.687909	0.0406885	0.0569837	0.00237588	
935	6400	0.693993	0.0406885	0.0969407	0.00237588	
936	6300	0.714712	0.0406885	0.103354	0.00237588	
937	6200	0.689225	0.0406885	0.0809908	0.00237588	
938	6100	0.732964	0.0406885	0.0951319	0.00237588	
939	6000	0.607995	0.0406885	0.0652053	0.00237588	
940	5900	0.696131	0.0406885	0.0668496	0.00237588	
941	5800	0.632825	0.0406885	0.0637254	0.00237588	
942	5700	0.652228	0.0406885	0.0691517	0.00237588	
943	5600	0.621643	0.0406885	0.0604368	0.00237588	
944	5500	0.646144	0.0406885	0.0576415	0.00237588	
945	5400	0.627892	0.0406885	0.0952964	0.00237588	
946	5300	0.668177	0.0406885	0.0880614	0.00237588	
947	5200	0.681825	0.0406885	0.0671785	0.00237588	
948	5100	0.774072	0.0406885	0.0900345	0.00237588	
949	5000	0.764699	0.0406885	0.0627388	0.00237588	
950	4900	0.678701	0.0406885	0.103518	0.00237588	
951	4800	0.673768	0.0406885	0.0837861	0.00237588	
952	4700	0.755984	0.0406885	0.0694806	0.00237588	
953	4600	0.72836	0.0406885	0.0508997	0.00237588	
954	4500	0.601254	0.0406885	0.0438292	0.00237588	
955	4400	0.694651	0.0406885	0.0655342	0.00237588	
956	4300	0.582179	0.0406885	0.0831284	0.00237588	
957	4200	0.675084	0.0406885	0.0602724	0.00237588	
958	4100	0.639073	0.0406885	0.06241	0.00237588	
959	4000	0.722604	0.0406885	0.0788532	0.00237588	
960	3900	0.712739	0.0406885	0.0530374	0.00237588	
961	3800	0.693993	0.0406885	0.0772089	0.00237588	
962	3700	0.684785	0.0406885	0.0550105	0.00237588	
963	3600	0.666862	0.0406885	0.0587925	0.00237588	
964	3500	0.654858	0.0406885	0.046789	0.00237588	
965	3400	0.705997	0.0406885	0.0620811	0.00237588	
966	3300	0.594019	0.0406885	0.0653698	0.00237588	
967	3200	0.631509	0.0406885	0.0740847	0.00237588	
968	3100	0.651734	0.0406885	0.0510642	0.00237588	
969	3000	0.568203	0.0406885	0.06241	0.00237588	
970	2900	0.643348	0.0406885	0.044158	0.00237588	
971	2800	0.570669	0.0406885	0.0495843	0.00237588	
972	2700	0.632496	0.0406885	0.0453091	0.00237588	
973	2600	0.582179	0.0406885	0.0775377	0.00237588	
974	2500	0.604542	0.0406885	0.0569837	0.00237588	
975	2400	0.734115	0.0406885	0.0765511	0.00237588	
976	2300	0.636935	0.0406885	0.0515575	0.00237588	
977	2200	0.708463	0.0406885	0.0660275	0.00237588	
978	2100	0.674755	0.0406885	0.0530374	0.00237588	
979	2000	0.661765	0.0406885	0.0617523	0.00237588	
980	1900	0.704353	0.0406885	0.0633966	0.00237588	
981	1800	0.620821	0.0406885	0.0673429	0.00237588	
982	1700	0.67311	0.0406885	0.0653698	0.00237588	
983	1600	0.698762	0.0406885	0.0594502	0.00237588	
984	1500	0.743652	0.0406885	0.064712	0.00237588	
985	1400	0.694487	0.0406885	0.0752357	0.00237588	
986	1300	0.733621	0.0406885	0.0541884	0.00237588	
987	1200	0.724084	0.0406885	0.058628	0.00237588	
988	1100	0.693007	0.0406885	0.0494199	0.00237588	
989	1000	0.713561	0.0406885	0.0627388	0.00237588	
990	900	0.680345	0.0406885	0.0536951	0.00237588	
991	800	0.634962	0.0406885	0.0564904	0.00237588	
992	700	0.703859	0.0406885	0.04794	0.00237588	
993	600	0.610626	0.0406885	0.0564904	0.00237588	
994	500	0.799065	0.0406885	0.0606012	0.00237588	
995	400	0.617861	0.0406885	0.0377452	0.00237588	
996	300	0.66456	0.0406885	0.0487621	0.00237588	
997	200	0.737732	0.0406885	0.0393895	0.00237588	
998	100	0.633811	0.0406885	0.0615878	0.00237588	
999	0	0.643348	0.0381563	0.0589569	0.000583576	
